Veronica De Leon - Text Analysis
…
About the Data

Netflix Movies and TV Shows

Show the code

netflix <- read.csv("../veronica-2222.github.io/netflix_titles.csv")

netflix |>
  group_by(director) |>
  summarize(count = n()) |>
  arrange(desc(count))

# A tibble: 4,529 × 2
   director                 count
   <chr>                    <int>
 1 ""                        2634
 2 "Rajiv Chilaka"             19
 3 "Raúl Campos, Jan Suter"    18
 4 "Marcus Raboy"              16
 5 "Suhas Kadav"               16
 6 "Jay Karas"                 14
 7 "Cathy Garcia-Molina"       13
 8 "Jay Chapman"               12
 9 "Martin Scorsese"           12
10 "Youssef Chahine"           12
# ℹ 4,519 more rows
…
